mioc-top/tests/test-002-memory-access/DATA_GOLD/tester.vcd
$version
	Icarus Verilog
$end
$timescale
	1ns
$end
$scope module testbench $end
$var wire 1 ! SPINDIS_N $end
$var wire 1 " RST_N $end
$var wire 1 # RAS_N $end
$var wire 1 $ RA7 $end
$var wire 1 % NETRST_N $end
$var wire 1 & MUX $end
$var wire 1 ' IS3_N $end
$var wire 1 ( EN245_N $end
$var wire 1 ) CPRST_N $end
$var wire 1 * CAS2_N $end
$var wire 1 + CAS1_N $end
$var wire 1 , BUSRQ_N $end
$var wire 1 - BOOTROMCS_N $end
$var wire 1 . AUXROMCS_N $end
$var wire 1 / AUXDECODE1_N $end
$var wire 1 0 ADDRBUFEN_N $end
$var reg 1 1 BA13 $end
$var reg 1 2 BA14 $end
$var reg 1 3 BA15 $end
$var reg 1 4 BA6 $end
$var reg 1 5 BA7 $end
$var reg 1 6 BD0 $end
$var reg 1 7 BD1 $end
$var reg 1 8 BD2 $end
$var reg 1 9 BD3 $end
$var reg 1 : BM1_N $end
$var reg 1 ; BMREQ_N $end
$var reg 1 < BRD_N $end
$var reg 1 = BRFSH_N $end
$var reg 1 > BUSAK_N $end
$var reg 1 ? B_PHI $end
$var reg 1 @ DMA_N $end
$var reg 1 A IORQ_N $end
$var reg 1 B N_BWR $end
$var reg 1 C N_CVRST $end
$var reg 1 D OS3_N $end
$var reg 1 E PBRST_N $end
$var reg 1 F WAIT_N $end
$scope module mioc $end
$var wire 1 0 ADDRBUFEN_N $end
$var wire 1 / AUXDECODE1_N $end
$var wire 1 . AUXROMCS_N $end
$var wire 1 1 BA13 $end
$var wire 1 2 BA14 $end
$var wire 1 3 BA15 $end
$var wire 1 4 BA6 $end
$var wire 1 5 BA7 $end
$var wire 1 6 BD0 $end
$var wire 1 7 BD1 $end
$var wire 1 8 BD2 $end
$var wire 1 9 BD3 $end
$var wire 1 : BM1_N $end
$var wire 1 ; BMREQ_N $end
$var wire 1 - BOOTROMCS_N $end
$var wire 1 < BRD_N $end
$var wire 1 = BRFSH_N $end
$var wire 1 > BUSAK_N $end
$var wire 1 , BUSRQ_N $end
$var wire 1 ? B_PHI $end
$var wire 1 + CAS1_N $end
$var wire 1 * CAS2_N $end
$var wire 1 ) CPRST_N $end
$var wire 1 @ DMA_N $end
$var wire 1 ( EN245_N $end
$var wire 1 A IORQ_N $end
$var wire 1 ' IS3_N $end
$var wire 1 & MUX $end
$var wire 1 % NETRST_N $end
$var wire 1 B N_BWR $end
$var wire 1 C N_CVRST $end
$var wire 1 D OS3_N $end
$var wire 1 E PBRST_N $end
$var wire 1 G PIN_IN_10 $end
$var wire 1 H PIN_IN_11 $end
$var wire 1 I PIN_IN_12 $end
$var wire 1 J PIN_IN_13 $end
$var wire 1 K PIN_IN_13B $end
$var wire 1 L PIN_IN_14 $end
$var wire 1 M PIN_IN_15 $end
$var wire 1 N PIN_IN_16 $end
$var wire 1 O PIN_IN_17 $end
$var wire 1 P PIN_IN_25 $end
$var wire 1 Q PIN_IN_3 $end
$var wire 1 R PIN_IN_31 $end
$var wire 1 S PIN_IN_32 $end
$var wire 1 T PIN_IN_33 $end
$var wire 1 U PIN_IN_34 $end
$var wire 1 V PIN_IN_35 $end
$var wire 1 W PIN_IN_36 $end
$var wire 1 X PIN_IN_4 $end
$var wire 1 Y PIN_IN_5 $end
$var wire 1 Z PIN_IN_6 $end
$var wire 1 [ PIN_IN_7 $end
$var wire 1 \ PIN_IN_8 $end
$var wire 1 ] PIN_IN_9 $end
$var wire 1 $ RA7 $end
$var wire 1 # RAS_N $end
$var wire 1 " RST_N $end
$var wire 1 ! SPINDIS_N $end
$var wire 1 F WAIT_N $end
$var wire 1 ^ w_u9z $end
$var wire 1 _ w_u94z $end
$var wire 1 ` w_u93qb $end
$var wire 1 a w_u93q $end
$var wire 1 b w_u92qb $end
$var wire 1 c w_u92q $end
$var wire 1 d w_u91z $end
$var wire 1 e w_u90qb $end
$var wire 1 f w_u90q $end
$var wire 1 g w_u8z $end
$var wire 1 h w_u89z $end
$var wire 1 i w_u88qb $end
$var wire 1 j w_u88q $end
$var wire 1 k w_u87z $end
$var wire 1 l w_u86z $end
$var wire 1 m w_u85z $end
$var wire 1 n w_u84z $end
$var wire 1 o w_u83z $end
$var wire 1 p w_u82z $end
$var wire 1 q w_u81z $end
$var wire 1 r w_u80z $end
$var wire 1 s w_u7z $end
$var wire 1 t w_u79z $end
$var wire 1 u w_u78z $end
$var wire 1 v w_u77qb $end
$var wire 1 w w_u77q $end
$var wire 1 x w_u76z $end
$var wire 1 y w_u75z $end
$var wire 1 z w_u74z $end
$var wire 1 { w_u73z $end
$var wire 1 | w_u72z $end
$var wire 1 } w_u71z $end
$var wire 1 ~ w_u70z $end
$var wire 1 !" w_u6z $end
$var wire 1 "" w_u69z $end
$var wire 1 #" w_u67z $end
$var wire 1 $" w_u66z $end
$var wire 1 %" w_u65z $end
$var wire 1 &" w_u63z $end
$var wire 1 '" w_u62z $end
$var wire 1 (" w_u61z $end
$var wire 1 )" w_u60qb $end
$var wire 1 *" w_u60q $end
$var wire 1 +" w_u5z $end
$var wire 1 ," w_u59z $end
$var wire 1 -" w_u58z $end
$var wire 1 ." w_u57qb $end
$var wire 1 /" w_u57q $end
$var wire 1 0" w_u56z $end
$var wire 1 1" w_u55z $end
$var wire 1 2" w_u54qb $end
$var wire 1 3" w_u54q $end
$var wire 1 4" w_u53z $end
$var wire 1 5" w_u52z $end
$var wire 1 6" w_u50z $end
$var wire 1 7" w_u4z $end
$var wire 1 8" w_u49z $end
$var wire 1 9" w_u48z $end
$var wire 1 :" w_u47z $end
$var wire 1 ;" w_u46z $end
$var wire 1 <" w_u45qb $end
$var wire 1 =" w_u45q $end
$var wire 1 >" w_u44z $end
$var wire 1 ?" w_u43qb $end
$var wire 1 @" w_u43q $end
$var wire 1 A" w_u42z $end
$var wire 1 B" w_u41z $end
$var wire 1 C" w_u40z $end
$var wire 1 D" w_u3z $end
$var wire 1 E" w_u39z $end
$var wire 1 F" w_u38qb $end
$var wire 1 G" w_u38q $end
$var wire 1 H" w_u37z $end
$var wire 1 I" w_u35z $end
$var wire 1 J" w_u34z $end
$var wire 1 K" w_u33z $end
$var wire 1 L" w_u32z $end
$var wire 1 M" w_u31z $end
$var wire 1 N" w_u30z $end
$var wire 1 O" w_u2qb $end
$var wire 1 P" w_u2q $end
$var wire 1 Q" w_u29z $end
$var wire 1 R" w_u28z $end
$var wire 1 S" w_u27z $end
$var wire 1 T" w_u26z $end
$var wire 1 U" w_u25z $end
$var wire 1 V" w_u24z $end
$var wire 1 W" w_u23z $end
$var wire 1 X" w_u22z $end
$var wire 1 Y" w_u21z $end
$var wire 1 Z" w_u20z $end
$var wire 1 [" w_u1qb $end
$var wire 1 \" w_u1q $end
$var wire 1 ]" w_u19z $end
$var wire 1 ^" w_u18z $end
$var wire 1 _" w_u17qb $end
$var wire 1 `" w_u17q $end
$var wire 1 a" w_u14qb $end
$var wire 1 b" w_u14q $end
$var wire 1 c" w_u13z $end
$var wire 1 d" w_u12z $end
$var wire 1 e" w_u11z $end
$var wire 1 f" w_u10z $end
$scope module u1 $end
$var wire 1 P in1 $end
$var wire 1 G in3 $end
$var wire 1 Z in4 $end
$var wire 1 \" q $end
$var wire 1 [" qbar $end
$var wire 1 E" in2 $end
$var reg 1 g" q1 $end
$upscope $end
$scope module u10 $end
$var wire 1 h" GND $end
$var wire 1 i" m1d $end
$var wire 1 f" z $end
$var wire 1 c" in1 $end
$upscope $end
$scope module u11 $end
$var wire 1 j" GND $end
$var wire 1 Q in1 $end
$var wire 1 k" m1d $end
$var wire 1 e" z $end
$upscope $end
$scope module u12 $end
$var wire 1 l" GND $end
$var wire 1 e" in2 $end
$var wire 1 m" m1d $end
$var wire 1 d" z $end
$var wire 1 9" in1 $end
$upscope $end
$scope module u13 $end
$var wire 1 n" GND $end
$var wire 1 o" m1d $end
$var wire 1 c" z $end
$var wire 1 9" in2 $end
$var wire 1 I" in1 $end
$upscope $end
$scope module u14 $end
$var wire 1 p" in1 $end
$var wire 1 W in2 $end
$var wire 1 U in4 $end
$var wire 1 b" q $end
$var wire 1 a" qbar $end
$var wire 1 8" in3 $end
$var reg 1 q" q1 $end
$upscope $end
$scope module u17 $end
$var wire 1 P in1 $end
$var wire 1 [ in3 $end
$var wire 1 Z in4 $end
$var wire 1 `" q $end
$var wire 1 _" qbar $end
$var wire 1 E" in2 $end
$var reg 1 r" q1 $end
$upscope $end
$scope module u18 $end
$var wire 1 s" GND $end
$var wire 1 `" in2 $end
$var wire 1 t" m1d $end
$var wire 1 ^" z $end
$var wire 1 ]" in3 $end
$var wire 1 F" in1 $end
$upscope $end
$scope module u19 $end
$var wire 1 u" GND $end
$var wire 1 v" m1d $end
$var wire 1 ]" z $end
$var wire 1 M" in1 $end
$upscope $end
$scope module u2 $end
$var wire 1 P in1 $end
$var wire 1 ] in3 $end
$var wire 1 Z in4 $end
$var wire 1 P" q $end
$var wire 1 O" qbar $end
$var wire 1 E" in2 $end
$var reg 1 w" q1 $end
$upscope $end
$scope module u20 $end
$var wire 1 x" GND $end
$var wire 1 _" in2 $end
$var wire 1 ]" in3 $end
$var wire 1 y" m1d $end
$var wire 1 Z" z $end
$var wire 1 F" in1 $end
$upscope $end
$scope module u21 $end
$var wire 1 z" GND $end
$var wire 1 {" m1d $end
$var wire 1 Y" z $end
$var wire 1 T" in1 $end
$upscope $end
$scope module u22 $end
$var wire 1 |" GND $end
$var wire 1 Z" in2 $end
$var wire 1 }" m1d $end
$var wire 1 ~" m2d $end
$var wire 1 X" z $end
$var wire 1 D" in1 $end
$upscope $end
$scope module u23 $end
$var wire 1 !# GND $end
$var wire 1 J in1 $end
$var wire 1 "# m1d $end
$var wire 1 ## m3d $end
$var wire 1 $# m5d $end
$var wire 1 %# m7d $end
$var wire 1 W" z $end
$var wire 1 >" in2 $end
$upscope $end
$scope module u24 $end
$var wire 1 &# GND $end
$var wire 1 '# m1d $end
$var wire 1 V" z $end
$var wire 1 0" in1 $end
$upscope $end
$scope module u25 $end
$var wire 1 (# GND $end
$var wire 1 [" in1 $end
$var wire 1 P" in2 $end
$var wire 1 )# m1d $end
$var wire 1 U" z $end
$var wire 1 R" in3 $end
$upscope $end
$scope module u26 $end
$var wire 1 *# GND $end
$var wire 1 [" in1 $end
$var wire 1 O" in2 $end
$var wire 1 +# m1d $end
$var wire 1 T" z $end
$var wire 1 R" in3 $end
$upscope $end
$scope module u27 $end
$var wire 1 ,# GND $end
$var wire 1 \" in1 $end
$var wire 1 O" in2 $end
$var wire 1 -# m1d $end
$var wire 1 S" z $end
$var wire 1 R" in3 $end
$upscope $end
$scope module u28 $end
$var wire 1 .# GND $end
$var wire 1 d" in1 $end
$var wire 1 /# m1d $end
$var wire 1 R" z $end
$upscope $end
$scope module u29 $end
$var wire 1 0# GND $end
$var wire 1 1# m1d $end
$var wire 1 2# m2d $end
$var wire 1 Q" z $end
$var wire 1 *" in2 $end
$var wire 1 y in1 $end
$upscope $end
$scope module u3 $end
$var wire 1 3# GND $end
$var wire 1 Y in1 $end
$var wire 1 X in2 $end
$var wire 1 4# m1d $end
$var wire 1 D" z $end
$upscope $end
$scope module u30 $end
$var wire 1 5# GND $end
$var wire 1 \" in1 $end
$var wire 1 P" in2 $end
$var wire 1 R" in3 $end
$var wire 1 6# m1d $end
$var wire 1 N" z $end
$upscope $end
$scope module u31 $end
$var wire 1 7# GND $end
$var wire 1 Q in1 $end
$var wire 1 8# m1d $end
$var wire 1 9# m3d $end
$var wire 1 :# m5d $end
$var wire 1 ;# m7d $end
$var wire 1 M" z $end
$var wire 1 9" in2 $end
$upscope $end
$scope module u32 $end
$var wire 1 <# GND $end
$var wire 1 =# m1d $end
$var wire 1 L" z $end
$var wire 1 +" in1 $end
$upscope $end
$scope module u33 $end
$var wire 1 ># GND $end
$var wire 1 W in1 $end
$var wire 1 ?# m1d $end
$var wire 1 K" z $end
$upscope $end
$scope module u34 $end
$var wire 1 @# GND $end
$var wire 1 N" in1 $end
$var wire 1 L" in2 $end
$var wire 1 A# m1d $end
$var wire 1 J" z $end
$var wire 1 B" in3 $end
$upscope $end
$scope module u35 $end
$var wire 1 B# GND $end
$var wire 1 J" in1 $end
$var wire 1 C# m1d $end
$var wire 1 I" z $end
$upscope $end
$scope module u37 $end
$var wire 1 D# GND $end
$var wire 1 M in1 $end
$var wire 1 L in2 $end
$var wire 1 E# m1d $end
$var wire 1 F# m2d $end
$var wire 1 H" z $end
$upscope $end
$scope module u38 $end
$var wire 1 P in1 $end
$var wire 1 \ in3 $end
$var wire 1 Z in4 $end
$var wire 1 G" q $end
$var wire 1 F" qbar $end
$var wire 1 E" in2 $end
$var reg 1 G# q1 $end
$upscope $end
$scope module u39 $end
$var wire 1 H# GND $end
$var wire 1 I# m1d $end
$var wire 1 E" z $end
$var wire 1 5" in1 $end
$upscope $end
$scope module u4 $end
$var wire 1 J# GND $end
$var wire 1 D" in1 $end
$var wire 1 K# m1d $end
$var wire 1 7" z $end
$upscope $end
$scope module u40 $end
$var wire 1 L# GND $end
$var wire 1 M# m1d $end
$var wire 1 C" z $end
$var wire 1 1" in1 $end
$upscope $end
$scope module u41 $end
$var wire 1 N# GND $end
$var wire 1 G" in1 $end
$var wire 1 _" in2 $end
$var wire 1 ]" in3 $end
$var wire 1 O# m1d $end
$var wire 1 B" z $end
$upscope $end
$scope module u42 $end
$var wire 1 P# GND $end
$var wire 1 Y" in1 $end
$var wire 1 X" in2 $end
$var wire 1 Q# m1d $end
$var wire 1 R# m2d $end
$var wire 1 A" z $end
$upscope $end
$scope module u43 $end
$var wire 1 ?" in3 $end
$var wire 1 S# in4 $end
$var wire 1 @" q $end
$var wire 1 ?" qbar $end
$var wire 1 ." in2 $end
$var wire 1 d in1 $end
$var reg 1 T# q1 $end
$upscope $end
$scope module u44 $end
$var wire 1 U# GND $end
$var wire 1 ?" in2 $end
$var wire 1 V# m1d $end
$var wire 1 >" z $end
$var wire 1 *" in1 $end
$upscope $end
$scope module u45 $end
$var wire 1 W# in1 $end
$var wire 1 K" in2 $end
$var wire 1 b" in3 $end
$var wire 1 =" q $end
$var wire 1 <" qbar $end
$var wire 1 y in4 $end
$var reg 1 X# q1 $end
$upscope $end
$scope module u46 $end
$var wire 1 Y# GND $end
$var wire 1 Z# m1d $end
$var wire 1 ;" z $end
$var wire 1 :" in1 $end
$upscope $end
$scope module u47 $end
$var wire 1 [# GND $end
$var wire 1 W in2 $end
$var wire 1 \# m1d $end
$var wire 1 :" z $end
$var wire 1 2" in1 $end
$upscope $end
$scope module u48 $end
$var wire 1 ]# GND $end
$var wire 1 ^# m1d $end
$var wire 1 9" z $end
$var wire 1 u in1 $end
$upscope $end
$scope module u49 $end
$var wire 1 _# GND $end
$var wire 1 Q" in2 $end
$var wire 1 `# m1d $end
$var wire 1 a# m2d $end
$var wire 1 8" z $end
$var wire 1 w in1 $end
$upscope $end
$scope module u5 $end
$var wire 1 b# GND $end
$var wire 1 7" in1 $end
$var wire 1 Z" in2 $end
$var wire 1 c# m1d $end
$var wire 1 d# m2d $end
$var wire 1 +" z $end
$upscope $end
$scope module u50 $end
$var wire 1 e# GND $end
$var wire 1 S" in1 $end
$var wire 1 f# m1d $end
$var wire 1 6" z $end
$upscope $end
$scope module u52 $end
$var wire 1 g# GND $end
$var wire 1 I in1 $end
$var wire 1 h# m1d $end
$var wire 1 i# m2d $end
$var wire 1 5" z $end
$var wire 1 %" in2 $end
$upscope $end
$scope module u53 $end
$var wire 1 j# GND $end
$var wire 1 Z in1 $end
$var wire 1 P in2 $end
$var wire 1 k# m1d $end
$var wire 1 4" z $end
$upscope $end
$scope module u54 $end
$var wire 1 l# in1 $end
$var wire 1 ;" in2 $end
$var wire 1 H" in3 $end
$var wire 1 3" q $end
$var wire 1 2" qbar $end
$var wire 1 l in4 $end
$var reg 1 m# q1 $end
$upscope $end
$scope module u55 $end
$var wire 1 n# GND $end
$var wire 1 G" in1 $end
$var wire 1 `" in2 $end
$var wire 1 ]" in3 $end
$var wire 1 o# m1d $end
$var wire 1 1" z $end
$upscope $end
$scope module u56 $end
$var wire 1 p# GND $end
$var wire 1 q# m1d $end
$var wire 1 r# m2d $end
$var wire 1 0" z $end
$var wire 1 { in2 $end
$var wire 1 | in1 $end
$upscope $end
$scope module u57 $end
$var wire 1 I in3 $end
$var wire 1 s# in4 $end
$var wire 1 /" q $end
$var wire 1 ." qbar $end
$var wire 1 )" in2 $end
$var wire 1 d in1 $end
$var reg 1 t# q1 $end
$upscope $end
$scope module u58 $end
$var wire 1 u# GND $end
$var wire 1 C" in2 $end
$var wire 1 v# m1d $end
$var wire 1 -" z $end
$var wire 1 y in1 $end
$upscope $end
$scope module u59 $end
$var wire 1 w# GND $end
$var wire 1 =" in1 $end
$var wire 1 a" in2 $end
$var wire 1 x# m1d $end
$var wire 1 ," z $end
$upscope $end
$scope module u6 $end
$var wire 1 y# GND $end
$var wire 1 U" in1 $end
$var wire 1 ^" in2 $end
$var wire 1 z# m1d $end
$var wire 1 !" z $end
$upscope $end
$scope module u60 $end
$var wire 1 {# in1 $end
$var wire 1 W in2 $end
$var wire 1 *" q $end
$var wire 1 )" qbar $end
$var wire 1 d in4 $end
$var wire 1 '" in3 $end
$var reg 1 |# q1 $end
$upscope $end
$scope module u61 $end
$var wire 1 }# GND $end
$var wire 1 ~# m1d $end
$var wire 1 (" z $end
$var wire 1 w in2 $end
$var wire 1 u in1 $end
$upscope $end
$scope module u62 $end
$var wire 1 !$ GND $end
$var wire 1 "$ m1d $end
$var wire 1 '" z $end
$var wire 1 n in1 $end
$upscope $end
$scope module u63 $end
$var wire 1 #$ GND $end
$var wire 1 (" in1 $end
$var wire 1 $$ m1d $end
$var wire 1 &" z $end
$upscope $end
$scope module u65 $end
$var wire 1 %$ GND $end
$var wire 1 H in1 $end
$var wire 1 &$ m1d $end
$var wire 1 %" z $end
$var wire 1 #" in2 $end
$upscope $end
$scope module u66 $end
$var wire 1 '$ GND $end
$var wire 1 I in1 $end
$var wire 1 ($ m1d $end
$var wire 1 $" z $end
$upscope $end
$scope module u67 $end
$var wire 1 )$ GND $end
$var wire 1 K in1 $end
$var wire 1 L in2 $end
$var wire 1 *$ m1d $end
$var wire 1 +$ m2d $end
$var wire 1 #" z $end
$upscope $end
$scope module u69 $end
$var wire 1 ,$ GND $end
$var wire 1 3" in2 $end
$var wire 1 -$ m1d $end
$var wire 1 "" z $end
$var wire 1 l in1 $end
$upscope $end
$scope module u7 $end
$var wire 1 .$ GND $end
$var wire 1 !" in1 $end
$var wire 1 /$ m1d $end
$var wire 1 s z $end
$upscope $end
$scope module u70 $end
$var wire 1 0$ GND $end
$var wire 1 #" in1 $end
$var wire 1 1$ m1d $end
$var wire 1 2$ m2d $end
$var wire 1 ~ z $end
$var wire 1 h in2 $end
$upscope $end
$scope module u71 $end
$var wire 1 3$ GND $end
$var wire 1 4$ m1d $end
$var wire 1 } z $end
$var wire 1 o in1 $end
$upscope $end
$scope module u72 $end
$var wire 1 5$ GND $end
$var wire 1 H in1 $end
$var wire 1 =" in2 $end
$var wire 1 6$ m1d $end
$var wire 1 | z $end
$upscope $end
$scope module u73 $end
$var wire 1 7$ GND $end
$var wire 1 } in1 $end
$var wire 1 =" in2 $end
$var wire 1 8$ m1d $end
$var wire 1 { z $end
$upscope $end
$scope module u74 $end
$var wire 1 9$ GND $end
$var wire 1 A" in2 $end
$var wire 1 :$ m1d $end
$var wire 1 z z $end
$var wire 1 y in1 $end
$upscope $end
$scope module u75 $end
$var wire 1 ;$ GND $end
$var wire 1 <$ m1d $end
$var wire 1 y z $end
$var wire 1 q in1 $end
$upscope $end
$scope module u76 $end
$var wire 1 =$ GND $end
$var wire 1 -" in1 $end
$var wire 1 >$ m1d $end
$var wire 1 x z $end
$upscope $end
$scope module u77 $end
$var wire 1 ?$ in1 $end
$var wire 1 K" in2 $end
$var wire 1 =" in3 $end
$var wire 1 w q $end
$var wire 1 v qbar $end
$var wire 1 d in4 $end
$var reg 1 @$ q1 $end
$upscope $end
$scope module u78 $end
$var wire 1 A$ GND $end
$var wire 1 N in1 $end
$var wire 1 "" in2 $end
$var wire 1 B$ m1d $end
$var wire 1 u z $end
$upscope $end
$scope module u79 $end
$var wire 1 C$ GND $end
$var wire 1 ~ in1 $end
$var wire 1 u in2 $end
$var wire 1 D$ m1d $end
$var wire 1 E$ m2d $end
$var wire 1 t z $end
$upscope $end
$scope module u8 $end
$var wire 1 F$ GND $end
$var wire 1 V" in1 $end
$var wire 1 s in2 $end
$var wire 1 G$ m1d $end
$var wire 1 H$ m2d $end
$var wire 1 g z $end
$upscope $end
$scope module u80 $end
$var wire 1 I$ GND $end
$var wire 1 W in1 $end
$var wire 1 J$ m1d $end
$var wire 1 r z $end
$upscope $end
$scope module u81 $end
$var wire 1 K$ GND $end
$var wire 1 S in1 $end
$var wire 1 u in2 $end
$var wire 1 L$ m1d $end
$var wire 1 M$ m2d $end
$var wire 1 N$ m4d $end
$var wire 1 q z $end
$var wire 1 p in4 $end
$var wire 1 a in3 $end
$upscope $end
$scope module u82 $end
$var wire 1 O$ GND $end
$var wire 1 u in1 $end
$var wire 1 P$ m1d $end
$var wire 1 p z $end
$upscope $end
$scope module u83 $end
$var wire 1 Q$ GND $end
$var wire 1 T in1 $end
$var wire 1 u in2 $end
$var wire 1 p in4 $end
$var wire 1 R$ m1d $end
$var wire 1 S$ m2d $end
$var wire 1 T$ m4d $end
$var wire 1 o z $end
$var wire 1 a in3 $end
$upscope $end
$scope module u84 $end
$var wire 1 U$ GND $end
$var wire 1 w in1 $end
$var wire 1 V in2 $end
$var wire 1 V$ m1d $end
$var wire 1 n z $end
$upscope $end
$scope module u85 $end
$var wire 1 W$ GND $end
$var wire 1 X$ m1d $end
$var wire 1 m z $end
$var wire 1 k in1 $end
$upscope $end
$scope module u86 $end
$var wire 1 Y$ GND $end
$var wire 1 O in1 $end
$var wire 1 Z$ m1d $end
$var wire 1 l z $end
$upscope $end
$scope module u87 $end
$var wire 1 [$ GND $end
$var wire 1 $" in1 $end
$var wire 1 %" in2 $end
$var wire 1 \$ m1d $end
$var wire 1 ]$ m2d $end
$var wire 1 k z $end
$upscope $end
$scope module u88 $end
$var wire 1 m in2 $end
$var wire 1 \ in3 $end
$var wire 1 ^$ in4 $end
$var wire 1 j q $end
$var wire 1 i qbar $end
$var wire 1 d in1 $end
$var reg 1 _$ q1 $end
$upscope $end
$scope module u89 $end
$var wire 1 `$ GND $end
$var wire 1 y in1 $end
$var wire 1 a$ m1d $end
$var wire 1 h z $end
$upscope $end
$scope module u9 $end
$var wire 1 b$ GND $end
$var wire 1 V" in1 $end
$var wire 1 f" in2 $end
$var wire 1 c$ m1d $end
$var wire 1 d$ m2d $end
$var wire 1 ^ z $end
$upscope $end
$scope module u90 $end
$var wire 1 m in2 $end
$var wire 1 [ in3 $end
$var wire 1 e$ in4 $end
$var wire 1 f q $end
$var wire 1 e qbar $end
$var wire 1 d in1 $end
$var reg 1 f$ q1 $end
$upscope $end
$scope module u91 $end
$var wire 1 g$ GND $end
$var wire 1 4" in1 $end
$var wire 1 h$ m1d $end
$var wire 1 d z $end
$upscope $end
$scope module u92 $end
$var wire 1 d in1 $end
$var wire 1 R in2 $end
$var wire 1 i$ in3 $end
$var wire 1 ," in4 $end
$var wire 1 c q $end
$var wire 1 b qbar $end
$var reg 1 j$ q1 $end
$upscope $end
$scope module u93 $end
$var wire 1 d in1 $end
$var wire 1 r in2 $end
$var wire 1 c in3 $end
$var wire 1 k$ in4 $end
$var wire 1 a q $end
$var wire 1 ` qbar $end
$var reg 1 l$ q1 $end
$upscope $end
$scope module u94 $end
$var wire 1 m$ GND $end
$var wire 1 P in1 $end
$var wire 1 n$ m1d $end
$var wire 1 _ z $end
$upscope $end
$upscope $end
$upscope $end
$enddefinitions $end
#0
$dumpvars
xn$
0m$
xl$
0k$
xj$
0i$
xh$
0g$
xf$
0e$
1d$
zc$
0b$
0a$
0`$
x_$
0^$
1]$
0\$
0[$
1Z$
0Y$
0X$
0W$
0V$
0U$
zT$
0S$
0R$
0Q$
0P$
0O$
zN$
0M$
0L$
0K$
0J$
0I$
1H$
zG$
0F$
0E$
0D$
0C$
1B$
0A$
x@$
0?$
1>$
0=$
1<$
0;$
0:$
09$
08$
07$
06$
05$
14$
03$
12$
01$
00$
x/$
0.$
0-$
0,$
1+$
0*$
0)$
1($
0'$
0&$
0%$
1$$
0#$
1"$
0!$
0~#
0}#
x|#
0{#
xz#
0y#
0x#
0w#
0v#
0u#
xt#
0s#
1r#
zq#
0p#
xo#
0n#
1m#
0l#
xk#
0j#
1i#
zh#
0g#
1f#
0e#
1d#
zc#
0b#
xa#
x`#
0_#
0^#
0]#
0\#
0[#
1Z#
0Y#
1X#
0W#
xV#
0U#
xT#
0S#
xR#
0Q#
0P#
xO#
0N#
xM#
0L#
0K#
0J#
0I#
0H#
xG#
1F#
zE#
0D#
xC#
0B#
xA#
0@#
0?#
0>#
0=#
0<#
1;#
0:#
09#
18#
07#
06#
05#
14#
03#
x2#
01#
00#
1/#
0.#
0-#
0,#
0+#
0*#
0)#
0(#
0'#
0&#
x%#
x$#
x##
x"#
0!#
x~"
0}"
0|"
1{"
0z"
xy"
0x"
xw"
0v"
0u"
xt"
0s"
xr"
xq"
0p"
xo"
0n"
0m"
0l"
1k"
0j"
xi"
0h"
xg"
xf"
1e"
0d"
xc"
xb"
xa"
x`"
x_"
x^"
0]"
x\"
x["
xZ"
1Y"
xX"
xW"
0V"
0U"
0T"
0S"
1R"
xQ"
xP"
xO"
0N"
1M"
0L"
0K"
xJ"
xI"
1H"
xG"
xF"
0E"
1D"
xC"
xB"
xA"
x@"
x?"
x>"
1="
0<"
1;"
0:"
09"
x8"
07"
16"
15"
x4"
13"
02"
x1"
10"
x/"
x."
0-"
0,"
1+"
x*"
x)"
0("
1'"
1&"
0%"
1$"
1#"
0""
x!"
1~
1}
0|
0{
0z
1y
1x
xw
xv
1u
0t
xs
0r
0q
0p
0o
0n
0m
1l
1k
xj
xi
0h
1g
xf
xe
xd
xc
xb
xa
x`
x_
1^
0]
0\
0[
xZ
0Y
0X
1W
1V
0U
1T
1S
1R
0Q
xP
0O
0N
0M
0L
1K
0J
0I
0H
0G
1F
xE
1D
xC
0B
1A
1@
0?
1>
1=
1<
1;
1:
09
08
07
06
05
04
03
02
01
10
x/
0.
1-
1,
1+
1*
x)
0(
1'
x&
0%
x$
x#
x"
x!
$end
#100
1["
0f"
0i"
1c"
1o"
0I"
0C#
1J"
1A#
0B"
0O#
1_"
1O"
0/
0A"
0R#
1X"
1~"
0Z"
0y"
0s
0/$
1!"
1z#
0^"
0t"
1F"
1?"
1."
0)"
0v
1!
1i
1e
1b
1`
0\"
0g"
0C"
0M#
11"
1o#
0`"
0r"
0P"
0w"
0G"
0G#
0@"
0T#
0/"
0t#
1$
1W"
1%#
0##
0$#
1"#
0>"
0V#
1#
18"
1a#
0Q"
02#
1*"
1|#
0`#
1w
1@$
0j
0_$
0f
0f$
0c
0j$
0a
0l$
0Z
1d
1h$
0"
04"
0k#
0)
0_
0n$
1P
1C
0E
#150
0&
0a"
1b"
1q"
1K"
1?#
0;"
0Z#
1:"
1\#
1r
1J$
0W
1?
#300
0K"
0?#
1;"
1Z#
0:"
0\#
0r
0J$
1W
0?
#450
1K"
1?#
0;"
0Z#
1:"
1\#
1r
1J$
0W
1?
#600
0K"
0?#
1;"
1Z#
0:"
0\#
0r
0J$
1W
0?
#750
1K"
1?#
0;"
0Z#
1:"
1\#
1r
1J$
0W
1?
#900
0K"
0?#
1;"
1Z#
0:"
0\#
0r
0J$
1W
0?
#1050
1K"
1?#
0;"
0Z#
1:"
1\#
1r
1J$
0W
1?
#1100
0d
0h$
1"
14"
1k#
1)
1_
1n$
0P
1E
#1200
0K"
0?#
1;"
1Z#
0:"
0\#
0r
0J$
1W
0?
#1350
1K"
1?#
0;"
0Z#
1:"
1\#
1r
1J$
0W
1?
#1500
0K"
0?#
1;"
1Z#
0:"
0\#
0r
0J$
1W
0?
#1650
1K"
1?#
0;"
0Z#
1:"
1\#
1r
1J$
0W
1?
#1800
0K"
0?#
1;"
1Z#
0:"
0\#
0r
0J$
1W
0?
#1950
1K"
1?#
0;"
0Z#
1:"
1\#
1r
1J$
0W
1?
#2100
0T$
0N$
1p
1P$
19#
1C"
1M#
01"
0o#
1]"
1v"
0M"
0;#
0:#
08#
1f"
1i"
0c"
0o"
1.
19"
1^#
0u
0B$
1N
0>
0c#
17"
1K#
z}"
0D"
04#
1Y
11
0}
04$
1o
1S$
zR$
0T
0<
1(
1t
1E$
zD$
0~
02$
1%
1h
1a$
1z
1:$
1-
1x
1>$
0-"
0v#
0#
08"
0a#
1Q"
12#
z1#
0y
0<$
1q
1M$
zL$
0S
0;
0K"
0?#
1;"
1Z#
0:"
0\#
0r
0J$
1W
0?
#2250
1&
1a"
0b"
0q"
1K"
1?#
0;"
0Z#
1:"
1\#
1r
1J$
0W
1?
#2400
1<"
0G$
0+
0^
0d$
0c$
1V"
1'#
00"
0r#
0q#
1|
16$
1{
18$
0="
0X#
zc#
07"
0K#
0}"
1D"
14#
0Y
01
0R$
1T
1<
0L$
1S
1;
0K"
0?#
1;"
1Z#
0:"
0\#
0r
0J$
1W
0?
#2550
1K"
1?#
0;"
0Z#
1:"
1\#
1r
1J$
0W
1?
#2700
1v
0'
0&"
0$$
1("
1~#
1#
18"
1a#
z`#
0w
0@$
0K"
0?#
1;"
1Z#
0:"
0\#
0r
0J$
1W
0?
